rules:
  # Health check (test-api.py Step 1)
  - path: /api/version
    methods: ['GET']
    request_headers:
      Authorization:
        - 'Token fake_token'
      Accept:
        - 'application/json'
    responses:
      - status_code: 200
        headers:
          Content-Type:
            - 'application/json'
        body: |
          {"version": "9.11.0"}
  # Round 2 — incremental poll after cursor bookmark (must precede round-1 offset=0)
  - path: /api/data/alert/alert/Alert/
    methods: ['GET']
    query_params:
      offset: '0'
      alert_time__gte: '{since:2024-06-15T10:25:00.*}'
      limit: '{limit:.*}'
      ordering: 'alert_time'
      status: 'new,investigating'
      alert_type: 'sigma,yara,hlai,vt,ransom,ioc,glimps,orion'
      level: 'low,medium,high,critical'
    request_headers:
      Authorization:
        - 'Token fake_token'
      Accept:
        - 'application/json'
    responses:
      - status_code: 200
        headers:
          Content-Type:
            - 'application/json'
        body: |
          {
            "count": 6,
            "next": null,
            "previous": null,
            "results": [
              {
                "id": "33333333-3333-3333-3333-333333333333",
                "alert_unique_id": "44444444-4444-4444-4444-444444444444",
                "alert_time": "2024-06-15T10:30:00.000000Z",
                "last_update": "2024-06-15T10:30:05.000000Z",
                "level": "medium",
                "status": "new",
                "alert_type": "sigma",
                "alert_subtype": "process",
                "rule_name": "Suspicious process creation",
                "rule_id": "sigma-suspicious-process",
                "msg": "Process matched Sigma rule",
                "maturity": "stable",
                "detection_origin": "agent",
                "threat_key": 43,
                "tenant": "tenant-example",
                "tags": ["investigation"],
                "execution": 0,
                "agent": {
                  "agentid": "55555555-5555-5555-5555-555555555555",
                  "hostname": "ws02.example.com",
                  "domainname": "example.com",
                  "dnsdomainname": "example.local",
                  "ostype": "windows",
                  "osproducttype": "Windows 11 Pro",
                  "osversion": "10.0.22621",
                  "version": "4.9.8",
                  "ipaddress": "198.51.100.20"
                },
                "process": {
                  "process_name": "unknown.exe",
                  "pid": 9001,
                  "ppid": 1800,
                  "process_unique_id": "66666666-6666-6666-6666-666666666666",
                  "image_name": "C:\\Program Files\\Example\\unknown.exe",
                  "commandline": "C:\\Program Files\\Example\\unknown.exe",
                  "parent_image": "C:\\Windows\\explorer.exe",
                  "parent_commandline": "C:\\Windows\\explorer.exe",
                  "username": "EXAMPLE\\asmith",
                  "usersid": "S-1-5-21-0000000000-0000000000-0000000000-1200",
                  "integrity_level": "Medium",
                  "signed": false,
                  "hashes": {
                    "md5": "098f6bcd4621d373cade4e832627b4f6",
                    "sha1": "356a192b7913b04c54574d18c28d46e6395428ab",
                    "sha256": "e3b0c44298fc1c149afbf4c8996fb92427ae41e4649b934ca495991b7852b855"
                  }
                }
              }
            ],
            "filters": {"wildcard": []}
          }
  # Round 1 — page 1 (offset 0, dynamic alert_time__gte)
  - path: /api/data/alert/alert/Alert/
    methods: ['GET']
    query_params:
      offset: '0'
      alert_time__gte: '{since:.*}'
      limit: '{limit:.*}'
      ordering: 'alert_time'
      status: 'new,investigating'
      alert_type: 'sigma,yara,hlai,vt,ransom,ioc,glimps,orion'
      level: 'low,medium,high,critical'
    request_headers:
      Authorization:
        - 'Token fake_token'
      Accept:
        - 'application/json'
    responses:
      - status_code: 200
        headers:
          Content-Type:
            - 'application/json'
        body: |
          {{ if eq .req_num 1 }}
          {
            "count": 5,
            "next": "/api/data/alert/alert/Alert/?limit=2&offset=2&ordering=alert_time&status=new%2Cinvestigating&alert_type=sigma%2Cyara%2Chlai%2Cvt%2Cransom%2Cioc%2Cglimps%2Corion&level=low%2Cmedium%2Chigh%2Ccritical&alert_time__gte={{ .request.vars.since | urlquery }}",
            "previous": null,
            "results": [
              {
                "id": "a1b2c3d4-e5f6-7890-abcd-ef1234567890",
                "alert_unique_id": "b2c3d4e5-f6a7-8901-bcde-f12345678901",
                "alert_time": "2024-06-15T10:21:20.704000Z",
                "last_update": "2024-06-15T10:22:01.000000Z",
                "level": "high",
                "status": "new",
                "alert_type": "yara",
                "alert_subtype": "process",
                "rule_name": "YARA binary check",
                "rule_id": "YARA binary check",
                "msg": "Binary was found malicious by 2 rule(s) with a score of 120",
                "maturity": "stable",
                "detection_origin": "agent",
                "threat_key": 42,
                "tenant": "tenant-example",
                "tags": ["investigation"],
                "execution": 0,
                "agent": {
                  "agentid": "11111111-1111-1111-1111-111111111111",
                  "hostname": "ws01.example.com",
                  "domainname": "example.com",
                  "dnsdomainname": "example.local",
                  "ostype": "windows",
                  "osproducttype": "Windows 10 Pro",
                  "osversion": "10.0.19041",
                  "version": "4.9.8",
                  "ipaddress": "198.51.100.10"
                },
                "process": {
                  "process_name": "suspicious.exe",
                  "pid": 5736,
                  "ppid": 1700,
                  "process_unique_id": "22222222-2222-2222-2222-222222222222",
                  "image_name": "C:\\Program Files\\Example\\suspicious.exe",
                  "commandline": "C:\\Program Files\\Example\\suspicious.exe -arg",
                  "parent_image": "C:\\Windows\\System32\\WindowsPowerShell\\v1.0\\powershell.exe",
                  "parent_commandline": "\"C:\\Windows\\System32\\WindowsPowerShell\\v1.0\\powershell.exe\"",
                  "username": "EXAMPLE\\jdoe",
                  "usersid": "S-1-5-21-0000000000-0000000000-0000000000-1100",
                  "integrity_level": "High",
                  "signed": false,
                  "hashes": {
                    "md5": "d41d8cd98f00b204e9800998ecf8427e",
                    "sha1": "356a192b7913b04c54574d18c28d46e6395428ab",
                    "sha256": "e3b0c44298fc1c149afbf4c8996fb92427ae41e4649b934ca495991b7852b855"
                  }
                }
              },
              {
                "id": "a2b3c4d5-e6f7-8901-bcde-f12345678901",
                "alert_unique_id": "b3c4d5e6-f7a8-9012-cdef-123456789012",
                "alert_time": "2024-06-15T10:22:00.000000Z",
                "last_update": "2024-06-15T10:22:30.000000Z",
                "level": "critical",
                "status": "investigating",
                "alert_type": "sigma",
                "alert_subtype": "process",
                "rule_name": "Sigma suspicious execution",
                "rule_id": "sigma-suspicious-exec",
                "msg": "Sigma rule matched suspicious execution",
                "maturity": "stable",
                "detection_origin": "agent",
                "threat_key": 42,
                "tenant": "tenant-example",
                "tags": [],
                "execution": 0,
                "agent": {
                  "agentid": "11111111-1111-1111-1111-111111111111",
                  "hostname": "ws01.example.com",
                  "domainname": "example.com",
                  "dnsdomainname": "example.local",
                  "ostype": "windows",
                  "osproducttype": "Windows 10 Pro",
                  "osversion": "10.0.19041",
                  "version": "4.9.8",
                  "ipaddress": "198.51.100.10"
                }
              }
            ],
            "filters": {"wildcard": []}
          }
          {{ else }}
          {
            "count": 6,
            "next": null,
            "previous": null,
            "results": [],
            "filters": {"wildcard": []}
          }
          {{ end }}
  # Round 1 — page 2 (offset 2)
  - path: /api/data/alert/alert/Alert/
    methods: ['GET']
    query_params:
      offset: '2'
      alert_time__gte: '{since:.*}'
      limit: '{limit:.*}'
      ordering: 'alert_time'
      status: 'new,investigating'
      alert_type: 'sigma,yara,hlai,vt,ransom,ioc,glimps,orion'
      level: 'low,medium,high,critical'
    request_headers:
      Authorization:
        - 'Token fake_token'
      Accept:
        - 'application/json'
    responses:
      - status_code: 200
        headers:
          Content-Type:
            - 'application/json'
        body: |
          {
            "count": 5,
            "next": "/api/data/alert/alert/Alert/?limit=2&offset=4&ordering=alert_time&status=new%2Cinvestigating&alert_type=sigma%2Cyara%2Chlai%2Cvt%2Cransom%2Cioc%2Cglimps%2Corion&level=low%2Cmedium%2Chigh%2Ccritical&alert_time__gte={{ .request.vars.since | urlquery }}",
            "previous": "/api/data/alert/alert/Alert/?limit=2&offset=0&ordering=alert_time&status=new%2Cinvestigating&alert_type=sigma%2Cyara%2Chlai%2Cvt%2Cransom%2Cioc%2Cglimps%2Corion&level=low%2Cmedium%2Chigh%2Ccritical&alert_time__gte={{ .request.vars.since | urlquery }}",
            "results": [
              {
                "id": "a3b4c5d6-e7f8-9012-cdef-234567890123",
                "alert_unique_id": "b4c5d6e7-f8a9-0123-def0-234567890123",
                "alert_time": "2024-06-15T10:23:00.000000Z",
                "last_update": "2024-06-15T10:23:30.000000Z",
                "level": "medium",
                "status": "new",
                "alert_type": "ioc",
                "alert_subtype": "file",
                "rule_name": "IOC hash match",
                "rule_id": "ioc-hash-match",
                "msg": "File hash matched threat intelligence IOC",
                "maturity": "stable",
                "detection_origin": "agent",
                "threat_key": 42,
                "tenant": "tenant-example",
                "tags": ["ioc"],
                "execution": 0,
                "agent": {
                  "agentid": "11111111-1111-1111-1111-111111111111",
                  "hostname": "ws01.example.com",
                  "domainname": "example.com",
                  "dnsdomainname": "example.local",
                  "ostype": "windows",
                  "osproducttype": "Windows 10 Pro",
                  "osversion": "10.0.19041",
                  "version": "4.9.8",
                  "ipaddress": "198.51.100.10"
                }
              },
              {
                "id": "a4b5c6d7-e8f9-0123-def0-345678901234",
                "alert_unique_id": "b5c6d7e8-f9a0-1234-ef01-345678901234",
                "alert_time": "2024-06-15T10:24:00.000000Z",
                "last_update": "2024-06-15T10:24:30.000000Z",
                "level": "low",
                "status": "new",
                "alert_type": "hlai",
                "alert_subtype": "process",
                "rule_name": "HLAI anomaly detection",
                "rule_id": "hlai-anomaly",
                "msg": "Behavioral anomaly detected by HLAI",
                "maturity": "stable",
                "detection_origin": "agent",
                "threat_key": 42,
                "tenant": "tenant-example",
                "tags": [],
                "execution": 0,
                "agent": {
                  "agentid": "11111111-1111-1111-1111-111111111111",
                  "hostname": "ws01.example.com",
                  "domainname": "example.com",
                  "dnsdomainname": "example.local",
                  "ostype": "windows",
                  "osproducttype": "Windows 10 Pro",
                  "osversion": "10.0.19041",
                  "version": "4.9.8",
                  "ipaddress": "198.51.100.10"
                }
              }
            ],
            "filters": {"wildcard": []}
          }
  # Round 1 — page 3 terminal (offset 4)
  - path: /api/data/alert/alert/Alert/
    methods: ['GET']
    query_params:
      offset: '4'
      alert_time__gte: '{since:.*}'
      limit: '{limit:.*}'
      ordering: 'alert_time'
      status: 'new,investigating'
      alert_type: 'sigma,yara,hlai,vt,ransom,ioc,glimps,orion'
      level: 'low,medium,high,critical'
    request_headers:
      Authorization:
        - 'Token fake_token'
      Accept:
        - 'application/json'
    responses:
      - status_code: 200
        headers:
          Content-Type:
            - 'application/json'
        body: |
          {
            "count": 5,
            "next": null,
            "previous": "/api/data/alert/alert/Alert/?limit=2&offset=2&ordering=alert_time&status=new%2Cinvestigating&alert_type=sigma%2Cyara%2Chlai%2Cvt%2Cransom%2Cioc%2Cglimps%2Corion&level=low%2Cmedium%2Chigh%2Ccritical&alert_time__gte={{ .request.vars.since | urlquery }}",
            "results": [
              {
                "id": "a5b6c7d8-e9f0-1234-ef01-456789012345",
                "alert_unique_id": "b6c7d8e9-f0a1-2345-f012-456789012345",
                "alert_time": "2024-06-15T10:25:00.000000Z",
                "last_update": "2024-06-15T10:25:30.000000Z",
                "level": "high",
                "status": "investigating",
                "alert_type": "ransom",
                "alert_subtype": "file",
                "rule_name": "Ransomware behavior",
                "rule_id": "ransom-behavior",
                "msg": "Potential ransomware activity detected",
                "maturity": "stable",
                "detection_origin": "agent",
                "threat_key": 42,
                "tenant": "tenant-example",
                "tags": ["ransomware"],
                "execution": 0,
                "agent": {
                  "agentid": "11111111-1111-1111-1111-111111111111",
                  "hostname": "ws01.example.com",
                  "domainname": "example.com",
                  "dnsdomainname": "example.local",
                  "ostype": "windows",
                  "osproducttype": "Windows 10 Pro",
                  "osversion": "10.0.19041",
                  "version": "4.9.8",
                  "ipaddress": "198.51.100.10"
                }
              }
            ],
            "filters": {"wildcard": []}
          }
  # Regression guard — initial request missing time filter (cursor incorrectly cleared)
  - path: /api/data/alert/alert/Alert/
    methods: ['GET']
    query_params:
      offset: '0'
      limit: '{limit:.*}'
      ordering: 'alert_time'
      status: 'new,investigating'
      alert_type: 'sigma,yara,hlai,vt,ransom,ioc,glimps,orion'
      level: 'low,medium,high,critical'
    request_headers:
      Authorization:
        - 'Token fake_token'
      Accept:
        - 'application/json'
    responses:
      - status_code: 400
        headers:
          Content-Type:
            - 'application/json'
        body: |
          {"detail": "alert_time__gte is required for incremental collection"}
