rules:
  - path: /status
    methods: ["GET"]
    request_headers:
    responses:
      - status_code: 200
        headers:
          Content-Type:
            - "application/json"
        body: '{"status":"OK"}'
  - path: /api/v1/audit_logs
    methods: ["GET"]
    request_headers:
      x-user-email:
        - "---auth_email---"
      x-user-token:
        - "---auth_token---"
    responses:
      - status_code: 200
        headers:
          Content-Type:
            - "application/json"
        body: |-
          {"audit_logs":[{"created_at":"2023-01-22T23:01:21Z","operation_name":"Login","id":3717060,"inputs":null,"request_ip":"216.160.83.56","request_user_agent":"Mozilla/5.0 (Macintosh; Intel Mac OS X 10_15_7) AppleWebKit/537.36 (KHTML, like Gecko) Chrome/109.0.0.0 Safari/537.36","tenant_id":1234,"updated_at":"2023-01-22T23:01:21Z","user_email":"example.user@your.domain.tld","user_id":1234,"user_name":"Example User"},{"created_at":"2023-01-22T22:49:42Z","operation_name":"GlobalResourceCreation","id":3716936,"inputs":{"inputs":{"teamId":7485,"name":"fleet_url","description":"URL to Fleet service","value":"\"https://elastic:9002\"","readAccess":"TEAM"}},"request_ip":"216.160.83.56","request_user_agent":"Mozilla/5.0 (Macintosh; Intel Mac OS X 10_15_7) AppleWebKit/537.36 (KHTML, like Gecko) Chrome/109.0.0.0 Safari/537.36","tenant_id":1234,"updated_at":"2023-01-22T22:49:42Z","user_email":"example.user@your.domain.tld","user_id":1234,"user_name":"Example User"},{"created_at":"2023-01-22T22:49:22Z","operation_name":"GlobalResourceCreation","id":3716935,"inputs":{"inputs":{"teamId":7485,"name":"kibana_url","description":"URL to Kibana","value":"\"https://elastic:9001\"","readAccess":"TEAM"}},"request_ip":"216.160.83.56","request_user_agent":"Mozilla/5.0 (Macintosh; Intel Mac OS X 10_15_7) AppleWebKit/537.36 (KHTML, like Gecko) Chrome/109.0.0.0 Safari/537.36","tenant_id":1234,"updated_at":"2023-01-22T22:49:22Z","user_email":"example.user@your.domain.tld","user_id":1234,"user_name":"Example User"},{"created_at":"2023-01-22T22:49:05Z","operation_name":"GlobalResourceCreation","id":3716917,"inputs":{"inputs":{"teamId":7485,"name":"elasticsearch_url","description":"URL to Elasticsearch","value":"\"https://elastic:9243\"","readAccess":"TEAM"}},"request_ip":"216.160.83.56","request_user_agent":"Mozilla/5.0 (Macintosh; Intel Mac OS X 10_15_7) AppleWebKit/537.36 (KHTML, like Gecko) Chrome/109.0.0.0 Safari/537.36","tenant_id":1234,"updated_at":"2023-01-22T22:49:05Z","user_email":"example.user@your.domain.tld","user_id":1234,"user_name":"Example User"},{"created_at":"2023-01-22T22:48:22Z","operation_name":"UserCredentialSave","id":3716915,"inputs":{"inputs":{"name":"elastic_password","mode":"TEXT","value":"REDACTED","description":"Elasticsearch password for basic auth access","jwtPayload":"REDACTED","jwtPrivateKey":"REDACTED","jwtAutoGenerateTimeClaims":"REDACTED","jwtAlgorithm":"REDACTED","jwtHs256Secret":"REDACTED","oauthGrantType":"REDACTED","oauthClientId":"REDACTED","oauthScope":"REDACTED","oauthClientSecret":"REDACTED","oauthUrl":"REDACTED","awsAuthenticationType":"REDACTED","oauthTokenUrl":"REDACTED","oauthPkceCodeChallengeMethod":"REDACTED","awsAccessKey":"REDACTED","awsSecretKey":"REDACTED","awsAssumedRoleArn":"REDACTED","awsAssumedRoleExternalId":"REDACTED","httpRequestLocationOfToken":"REDACTED","httpRequestOptions":"REDACTED","mtlsClientCertificate":"REDACTED","mtlsClientPrivateKey":"REDACTED","mtlsRootCertificate":"REDACTED","readAccess":"TEAM","allowedHosts":"REDACTED","icon":"REDACTED","teamId":7485}},"request_ip":"216.160.83.56","request_user_agent":"Mozilla/5.0 (Macintosh; Intel Mac OS X 10_15_7) AppleWebKit/537.36 (KHTML, like Gecko) Chrome/109.0.0.0 Safari/537.36","tenant_id":1234,"updated_at":"2023-01-22T22:48:22Z","user_email":"example.user@your.domain.tld","user_id":1234,"user_name":"Example User"},{"created_at":"2023-01-22T22:47:53Z","operation_name":"UserCredentialSave","id":3716913,"inputs":{"inputs":{"name":"elastic_username","mode":"TEXT","value":"REDACTED","description":"Elasticsearch username for basic auth access","jwtPayload":"REDACTED","jwtPrivateKey":"REDACTED","jwtAutoGenerateTimeClaims":"REDACTED","jwtAlgorithm":"REDACTED","jwtHs256Secret":"REDACTED","oauthGrantType":"REDACTED","oauthClientId":"REDACTED","oauthScope":"REDACTED","oauthClientSecret":"REDACTED","oauthUrl":"REDACTED","awsAuthenticationType":"REDACTED","oauthTokenUrl":"REDACTED","oauthPkceCodeChallengeMethod":"REDACTED","awsAccessKey":"REDACTED","awsSecretKey":"REDACTED","awsAssumedRoleArn":"REDACTED","awsAssumedRoleExternalId":"REDACTED","httpRequestLocationOfToken":"REDACTED","httpRequestOptions":"REDACTED","mtlsClientCertificate":"REDACTED","mtlsClientPrivateKey":"REDACTED","mtlsRootCertificate":"REDACTED","readAccess":"TEAM","allowedHosts":"REDACTED","icon":"REDACTED","sharedTeamSlugs":"REDACTED","teamId":7485}},"request_ip":"216.160.83.56","request_user_agent":"Mozilla/5.0 (Macintosh; Intel Mac OS X 10_15_7) AppleWebKit/537.36 (KHTML, like Gecko) Chrome/109.0.0.0 Safari/537.36","tenant_id":1234,"updated_at":"2023-01-22T22:47:53Z","user_email":"example.user@your.domain.tld","user_id":1234,"user_name":"Example User"},{"created_at":"2023-01-22T22:47:04Z","operation_name":"AnalyticsCapture","id":3716911,"inputs":{"inputs":{"eventName":"nightModeToggled"}},"request_ip":"216.160.83.56","request_user_agent":"Mozilla/5.0 (Macintosh; Intel Mac OS X 10_15_7) AppleWebKit/537.36 (KHTML, like Gecko) Chrome/109.0.0.0 Safari/537.36","tenant_id":1234,"updated_at":"2023-01-22T22:47:04Z","user_email":"example.user@your.domain.tld","user_id":1234,"user_name":"Example User"},{"created_at":"2023-01-22T11:35:47Z","operation_name":"ActionsScheduleChange","id":3706054,"inputs":{"inputs":{"storyId":146410,"actions":[{"actionId":1348418,"schedule":[{"cron":"0 9 * * *","timezone":"Australia/Brisbane"}]}]}},"request_ip":"216.160.83.56","request_user_agent":"Mozilla/5.0 (Macintosh; Intel Mac OS X 10_15_7) AppleWebKit/537.36 (KHTML, like Gecko) Chrome/109.0.0.0 Safari/537.36","tenant_id":1234,"updated_at":"2023-01-22T11:35:47Z","user_email":"example.user@your.domain.tld","user_id":1234,"user_name":"Example User"},{"created_at":"2023-01-22T11:35:14Z","operation_name":"StoryArchive","id":3706052,"inputs":{"inputs":{"id":1142175,"source":"STORY_LIST"}},"request_ip":"216.160.83.56","request_user_agent":"Mozilla/5.0 (Macintosh; Intel Mac OS X 10_15_7) AppleWebKit/537.36 (KHTML, like Gecko) Chrome/109.0.0.0 Safari/537.36","tenant_id":1234,"updated_at":"2023-01-22T11:35:14Z","user_email":"example.user@your.domain.tld","user_id":1234,"user_name":"Example User"},{"created_at":"2023-01-22T11:34:37Z","operation_name":"ActionDescriptionChange","id":3706044,"inputs":{"inputs":{"actionId":1348423,"description":""}},"request_ip":"216.160.83.56","request_user_agent":"Mozilla/5.0 (Macintosh; Intel Mac OS X 10_15_7) AppleWebKit/537.36 (KHTML, like Gecko) Chrome/109.0.0.0 Safari/537.36","tenant_id":1234,"updated_at":"2023-01-22T11:34:37Z","user_email":"example.user@your.domain.tld","user_id":1234,"user_name":"Example User"},{"created_at":"2023-01-22T11:34:33Z","operation_name":"StoryItemsMovement","id":3706043,"inputs":{"storyId":146411,"inputs":{"actionIds":[1348423],"diagramNoteIds":[],"delta":{"x":62,"y":-34}}},"request_ip":"216.160.83.56","request_user_agent":"Mozilla/5.0 (Macintosh; Intel Mac OS X 10_15_7) AppleWebKit/537.36 (KHTML, like Gecko) Chrome/109.0.0.0 Safari/537.36","tenant_id":1234,"updated_at":"2023-01-22T11:34:33Z","user_email":"example.user@your.domain.tld","user_id":1234,"user_name":"Example User"},{"created_at":"2023-01-22T11:34:32Z","operation_name":"StoryItemsCreation","id":3706042,"inputs":{"inputs":{"storyId":146411,"links":[],"agents":[{"name":"Webhook Action","type":"webhook","position":{"x":643,"y":149},"timeSavedUnit":"minutes","timeSavedValue":0,"form":null}],"diagramNotes":[],"options":{"createFormEmptyState":true}},"liveEvents":null},"request_ip":"216.160.83.56","request_user_agent":"Mozilla/5.0 (Macintosh; Intel Mac OS X 10_15_7) AppleWebKit/537.36 (KHTML, like Gecko) Chrome/109.0.0.0 Safari/537.36","tenant_id":1234,"updated_at":"2023-01-22T11:34:32Z","user_email":"example.user@your.domain.tld","user_id":1234,"user_name":"Example User"},{"created_at":"2023-01-22T11:34:30Z","operation_name":"StoryItemsDestruction","id":3706041,"inputs":{"storyId":146411,"actionIds":[1348422],"diagramNoteIds":[],"linkIds":[]},"request_ip":"216.160.83.56","request_user_agent":"Mozilla/5.0 (Macintosh; Intel Mac OS X 10_15_7) AppleWebKit/537.36 (KHTML, like Gecko) Chrome/109.0.0.0 Safari/537.36","tenant_id":1234,"updated_at":"2023-01-22T11:34:30Z","user_email":"example.user@your.domain.tld","user_id":1234,"user_name":"Example User"},{"created_at":"2023-01-22T11:34:18Z","operation_name":"ActionsOptionsChange","id":3706040,"inputs":{"inputs":{"storyId":146411,"actions":[{"actionId":1348422,"options":"{\"rules\":[{\"type\":\"field==value\",\"value\":\"foo\",\"path\":\"<<somekey.subkey.subkey.goal>>\"},{\"type\":\"field==value\",\"value\":\"foo\",\"path\":\"<< somekey.subkey.subkey.goal >>\"}]}"}],"editingSource":"NO_CODE"}},"request_ip":"216.160.83.56","request_user_agent":"Mozilla/5.0 (Macintosh; Intel Mac OS X 10_15_7) AppleWebKit/537.36 (KHTML, like Gecko) Chrome/109.0.0.0 Safari/537.36","tenant_id":1234,"updated_at":"2023-01-22T11:34:18Z","user_email":"example.user@your.domain.tld","user_id":1234,"user_name":"Example User"},{"created_at":"2023-01-22T11:34:09Z","operation_name":"ActionDescriptionChange","id":3706034,"inputs":{"inputs":{"actionId":1348422,"description":""}},"request_ip":"216.160.83.56","request_user_agent":"Mozilla/5.0 (Macintosh; Intel Mac OS X 10_15_7) AppleWebKit/537.36 (KHTML, like Gecko) Chrome/109.0.0.0 Safari/537.36","tenant_id":1234,"updated_at":"2023-01-22T11:34:09Z","user_email":"example.user@your.domain.tld","user_id":1234,"user_name":"Example User"},{"created_at":"2023-01-22T11:34:06Z","operation_name":"StoryItemsCreation","id":3706020,"inputs":{"inputs":{"storyId":146411,"links":[],"agents":[{"name":"Trigger Action","type":"trigger","position":{"x":701,"y":372},"timeSavedUnit":"minutes","timeSavedValue":0,"form":null}],"diagramNotes":[],"options":{"createFormEmptyState":true}},"liveEvents":null},"request_ip":"216.160.83.56","request_user_agent":"Mozilla/5.0 (Macintosh; Intel Mac OS X 10_15_7) AppleWebKit/537.36 (KHTML, like Gecko) Chrome/109.0.0.0 Safari/537.36","tenant_id":1234,"updated_at":"2023-01-22T11:34:06Z","user_email":"example.user@your.domain.tld","user_id":1234,"user_name":"Example User"},{"created_at":"2023-01-22T11:33:57Z","operation_name":"StoryItemsDestruction","id":3706013,"inputs":{"storyId":146411,"actionIds":[1348421],"diagramNoteIds":[],"linkIds":[]},"request_ip":"216.160.83.56","request_user_agent":"Mozilla/5.0 (Macintosh; Intel Mac OS X 10_15_7) AppleWebKit/537.36 (KHTML, like Gecko) Chrome/109.0.0.0 Safari/537.36","tenant_id":1234,"updated_at":"2023-01-22T11:33:57Z","user_email":"example.user@your.domain.tld","user_id":1234,"user_name":"Example User"},{"created_at":"2023-01-22T11:33:35Z","operation_name":"StoryItemsMovement","id":3706011,"inputs":{"storyId":146411,"inputs":{"actionIds":[1348421],"diagramNoteIds":[],"delta":{"x":-88,"y":-106}}},"request_ip":"216.160.83.56","request_user_agent":"Mozilla/5.0 (Macintosh; Intel Mac OS X 10_15_7) AppleWebKit/537.36 (KHTML, like Gecko) Chrome/109.0.0.0 Safari/537.36","tenant_id":1234,"updated_at":"2023-01-22T11:33:35Z","user_email":"example.user@your.domain.tld","user_id":1234,"user_name":"Example User"},{"created_at":"2023-01-22T11:33:26Z","operation_name":"ActionDescriptionChange","id":3706010,"inputs":{"inputs":{"actionId":1348421,"description":""}},"request_ip":"216.160.83.56","request_user_agent":"Mozilla/5.0 (Macintosh; Intel Mac OS X 10_15_7) AppleWebKit/537.36 (KHTML, like Gecko) Chrome/109.0.0.0 Safari/537.36","tenant_id":1234,"updated_at":"2023-01-22T11:33:26Z","user_email":"example.user@your.domain.tld","user_id":1234,"user_name":"Example User"},{"created_at":"2023-01-22T11:33:22Z","operation_name":"StoryItemsCreation","id":3706009,"inputs":{"inputs":{"storyId":146411,"links":[],"agents":[{"name":"HTTP Request Action","type":"httpRequest","position":{"x":786,"y":331},"timeSavedUnit":"minutes","timeSavedValue":0,"form":null}],"diagramNotes":[],"options":{"createFormEmptyState":true}},"liveEvents":null},"request_ip":"216.160.83.56","request_user_agent":"Mozilla/5.0 (Macintosh; Intel Mac OS X 10_15_7) AppleWebKit/537.36 (KHTML, like Gecko) Chrome/109.0.0.0 Safari/537.36","tenant_id":1234,"updated_at":"2023-01-22T11:33:22Z","user_email":"example.user@your.domain.tld","user_id":1234,"user_name":"Example User"}],"meta":{"current_page":"https://your-tenant-1234.tines.com/api/v1/audit_logs?per_page=20&page=1","previous_page":null,"next_page":"null","per_page":20,"pages":1,"count":123}}
  - path: /api/v1/reporting/time_saved
    methods: ["GET"]
    request_headers:
      x-user-email:
        - "---auth_email---"
      x-user-token:
        - "---auth_token---"
    responses:
      - status_code: 200
        headers:
          Content-Type:
            - "application/json"
        body: |-
          {"time_saved":[{"date":"2022-06-01T00:00:00Z","value":35910},{"date":"2022-06-02T00:00:00Z","value":55800},{"date":"2022-06-03T00:00:00Z","value":58200},{"date":"2022-06-04T00:00:00Z","value":51840},{"date":"2022-06-05T00:00:00Z","value":53400},{"date":"2022-06-06T00:00:00Z","value":55080},{"date":"2022-06-07T00:00:00Z","value":60600},{"date":"2022-06-08T00:00:00Z","value":156300},{"date":"2022-06-09T00:00:00Z","value":173940},{"date":"2022-06-10T00:00:00Z","value":176700},{"date":"2022-06-11T00:00:00Z","value":172800},{"date":"2022-06-12T00:00:00Z","value":175620},{"date":"2022-06-13T00:00:00Z","value":172200},{"date":"2022-06-14T00:00:00Z","value":175410},{"date":"2022-06-15T00:00:00Z","value":174780},{"date":"2022-06-16T00:00:00Z","value":184260},{"date":"2022-06-17T00:00:00Z","value":172590},{"date":"2022-06-18T00:00:00Z","value":172800},{"date":"2022-06-19T00:00:00Z","value":172800},{"date":"2022-06-20T00:00:00Z","value":178320},{"date":"2022-06-21T00:00:00Z","value":179880},{"date":"2022-06-22T00:00:00Z","value":178350},{"date":"2022-06-23T00:00:00Z","value":173880},{"date":"2022-06-24T00:00:00Z","value":202890},{"date":"2022-06-25T00:00:00Z","value":173160},{"date":"2022-06-26T00:00:00Z","value":181230},{"date":"2022-06-27T00:00:00Z","value":178680},{"date":"2022-06-28T00:00:00Z","value":182250},{"date":"2022-06-29T00:00:00Z","value":180450},{"date":"2022-06-30T00:00:00Z","value":174900},{"date":"2022-07-01T00:00:00Z","value":176910},{"date":"2022-07-02T00:00:00Z","value":172800},{"date":"2022-07-03T00:00:00Z","value":172800},{"date":"2022-07-04T00:00:00Z","value":175020},{"date":"2022-07-05T00:00:00Z","value":182340},{"date":"2022-07-06T00:00:00Z","value":247820},{"date":"2022-07-07T00:00:00Z","value":221500},{"date":"2022-07-08T00:00:00Z","value":208410},{"date":"2022-07-09T00:00:00Z","value":182160},{"date":"2022-07-10T00:00:00Z","value":175680},{"date":"2022-07-11T00:00:00Z","value":189880},{"date":"2022-07-12T00:00:00Z","value":178310},{"date":"2022-07-13T00:00:00Z","value":185700},{"date":"2022-07-14T00:00:00Z","value":225710},{"date":"2022-07-15T00:00:00Z","value":183420},{"date":"2022-07-16T00:00:00Z","value":175680},{"date":"2022-07-17T00:00:00Z","value":184370},{"date":"2022-07-18T00:00:00Z","value":188850},{"date":"2022-07-19T00:00:00Z","value":189020},{"date":"2022-07-20T00:00:00Z","value":203980},{"date":"2022-07-21T00:00:00Z","value":180460},{"date":"2022-07-22T00:00:00Z","value":223280},{"date":"2022-07-23T00:00:00Z","value":178920},{"date":"2022-07-24T00:00:00Z","value":176830},{"date":"2022-07-25T00:00:00Z","value":181590},{"date":"2022-07-26T00:00:00Z","value":190340},{"date":"2022-07-27T00:00:00Z","value":189690},{"date":"2022-07-28T00:00:00Z","value":195860},{"date":"2022-07-29T00:00:00Z","value":184180},{"date":"2022-07-30T00:00:00Z","value":175680},{"date":"2022-07-31T00:00:00Z","value":175680},{"date":"2022-08-01T00:00:00Z","value":182820},{"date":"2022-08-02T00:00:00Z","value":191710},{"date":"2022-08-03T00:00:00Z","value":179740},{"date":"2022-08-04T00:00:00Z","value":178690},{"date":"2022-08-05T00:00:00Z","value":185560},{"date":"2022-08-06T00:00:00Z","value":177910},{"date":"2022-08-07T00:00:00Z","value":178160},{"date":"2022-08-08T00:00:00Z","value":179810},{"date":"2022-08-09T00:00:00Z","value":191590},{"date":"2022-08-10T00:00:00Z","value":195330},{"date":"2022-08-11T00:00:00Z","value":175680},{"date":"2022-08-12T00:00:00Z","value":181060},{"date":"2022-08-13T00:00:00Z","value":177910},{"date":"2022-08-14T00:00:00Z","value":180280},{"date":"2022-08-15T00:00:00Z","value":198880},{"date":"2022-08-16T00:00:00Z","value":186250},{"date":"2022-08-17T00:00:00Z","value":179130},{"date":"2022-08-18T00:00:00Z","value":180430},{"date":"2022-08-19T00:00:00Z","value":175950},{"date":"2022-08-20T00:00:00Z","value":175680},{"date":"2022-08-21T00:00:00Z","value":185010},{"date":"2022-08-22T00:00:00Z","value":184640},{"date":"2022-08-23T00:00:00Z","value":192120},{"date":"2022-08-24T00:00:00Z","value":178930},{"date":"2022-08-25T00:00:00Z","value":184600},{"date":"2022-08-26T00:00:00Z","value":177750},{"date":"2022-08-27T00:00:00Z","value":181570},{"date":"2022-08-28T00:00:00Z","value":182120},{"date":"2022-08-29T00:00:00Z","value":176400},{"date":"2022-08-30T00:00:00Z","value":194860},{"date":"2022-08-31T00:00:00Z","value":250010},{"date":"2022-09-01T00:00:00Z","value":243210},{"date":"2022-09-02T00:00:00Z","value":225080},{"date":"2022-09-03T00:00:00Z","value":178680},{"date":"2022-09-04T00:00:00Z","value":183970},{"date":"2022-09-05T00:00:00Z","value":209570},{"date":"2022-09-06T00:00:00Z","value":219720},{"date":"2022-09-07T00:00:00Z","value":270080},{"date":"2022-09-08T00:00:00Z","value":203610},{"date":"2022-09-09T00:00:00Z","value":184440},{"date":"2022-09-10T00:00:00Z","value":178200},{"date":"2022-09-11T00:00:00Z","value":178200},{"date":"2022-09-12T00:00:00Z","value":197300},{"date":"2022-09-13T00:00:00Z","value":236860},{"date":"2022-09-14T00:00:00Z","value":207970},{"date":"2022-09-15T00:00:00Z","value":187290},{"date":"2022-09-16T00:00:00Z","value":181850},{"date":"2022-09-17T00:00:00Z","value":188830},{"date":"2022-09-18T00:00:00Z","value":182030},{"date":"2022-09-19T00:00:00Z","value":203000},{"date":"2022-09-20T00:00:00Z","value":204630},{"date":"2022-09-21T00:00:00Z","value":257670},{"date":"2022-09-22T00:00:00Z","value":207600},{"date":"2022-09-23T00:00:00Z","value":266280},{"date":"2022-09-24T00:00:00Z","value":186590},{"date":"2022-09-25T00:00:00Z","value":213710},{"date":"2022-09-26T00:00:00Z","value":207450},{"date":"2022-09-27T00:00:00Z","value":240390},{"date":"2022-09-28T00:00:00Z","value":257260},{"date":"2022-09-29T00:00:00Z","value":282430},{"date":"2022-09-30T00:00:00Z","value":243730},{"date":"2022-10-01T00:00:00Z","value":332190},{"date":"2022-10-02T00:00:00Z","value":359130},{"date":"2022-10-03T00:00:00Z","value":391320},{"date":"2022-10-04T00:00:00Z","value":375260},{"date":"2022-10-05T00:00:00Z","value":408000},{"date":"2022-10-06T00:00:00Z","value":429310},{"date":"2022-10-07T00:00:00Z","value":357060},{"date":"2022-10-08T00:00:00Z","value":356090},{"date":"2022-10-09T00:00:00Z","value":612940},{"date":"2022-10-10T00:00:00Z","value":390710},{"date":"2022-10-11T00:00:00Z","value":370580},{"date":"2022-10-12T00:00:00Z","value":359290},{"date":"2022-10-13T00:00:00Z","value":394930},{"date":"2022-10-14T00:00:00Z","value":397450},{"date":"2022-10-15T00:00:00Z","value":353180},{"date":"2022-10-16T00:00:00Z","value":379330},{"date":"2022-10-17T00:00:00Z","value":387210},{"date":"2022-10-18T00:00:00Z","value":501340},{"date":"2022-10-19T00:00:00Z","value":512530},{"date":"2022-10-20T00:00:00Z","value":370190},{"date":"2022-10-21T00:00:00Z","value":369260},{"date":"2022-10-22T00:00:00Z","value":361220},{"date":"2022-10-23T00:00:00Z","value":358450},{"date":"2022-10-24T00:00:00Z","value":383770},{"date":"2022-10-25T00:00:00Z","value":472240},{"date":"2022-10-26T00:00:00Z","value":479030},{"date":"2022-10-27T00:00:00Z","value":409600},{"date":"2022-10-28T00:00:00Z","value":419510},{"date":"2022-10-29T00:00:00Z","value":367840},{"date":"2022-10-30T00:00:00Z","value":394150},{"date":"2022-10-31T00:00:00Z","value":400630},{"date":"2022-11-01T00:00:00Z","value":397340},{"date":"2022-11-02T00:00:00Z","value":443540},{"date":"2022-11-03T00:00:00Z","value":425910},{"date":"2022-11-04T00:00:00Z","value":445200},{"date":"2022-11-05T00:00:00Z","value":376460},{"date":"2022-11-06T00:00:00Z","value":393460},{"date":"2022-11-07T00:00:00Z","value":396070},{"date":"2022-11-08T00:00:00Z","value":356530},{"date":"2022-11-09T00:00:00Z","value":289200},{"date":"2022-11-10T00:00:00Z","value":290610},{"date":"2022-11-11T00:00:00Z","value":290620},{"date":"2022-11-12T00:00:00Z","value":264020},{"date":"2022-11-13T00:00:00Z","value":315020},{"date":"2022-11-14T00:00:00Z","value":362920},{"date":"2022-11-15T00:00:00Z","value":374630},{"date":"2022-11-16T00:00:00Z","value":341770},{"date":"2022-11-17T00:00:00Z","value":790110},{"date":"2022-11-18T00:00:00Z","value":286650},{"date":"2022-11-19T00:00:00Z","value":271080},{"date":"2022-11-20T00:00:00Z","value":326490},{"date":"2022-11-21T00:00:00Z","value":1963350},{"date":"2022-11-22T00:00:00Z","value":3757890},{"date":"2022-11-23T00:00:00Z","value":2058720},{"date":"2022-11-24T00:00:00Z","value":1315890},{"date":"2022-11-25T00:00:00Z","value":1486160},{"date":"2022-11-26T00:00:00Z","value":1289680},{"date":"2022-11-27T00:00:00Z","value":493380},{"date":"2022-11-28T00:00:00Z","value":1424420},{"date":"2022-11-29T00:00:00Z","value":1760680},{"date":"2022-11-30T00:00:00Z","value":1471760},{"date":"2022-12-01T00:00:00Z","value":865040},{"date":"2022-12-02T00:00:00Z","value":1563840},{"date":"2022-12-03T00:00:00Z","value":692100},{"date":"2022-12-04T00:00:00Z","value":1028840},{"date":"2022-12-05T00:00:00Z","value":1700080},{"date":"2022-12-06T00:00:00Z","value":1497900},{"date":"2022-12-07T00:00:00Z","value":2967080},{"date":"2022-12-08T00:00:00Z","value":1021560},{"date":"2022-12-09T00:00:00Z","value":1093070},{"date":"2022-12-10T00:00:00Z","value":609100},{"date":"2022-12-11T00:00:00Z","value":1116920},{"date":"2022-12-12T00:00:00Z","value":1018720},{"date":"2022-12-13T00:00:00Z","value":1731185},{"date":"2022-12-14T00:00:00Z","value":2036375},{"date":"2022-12-15T00:00:00Z","value":2296250},{"date":"2022-12-16T00:00:00Z","value":1090235},{"date":"2022-12-17T00:00:00Z","value":1332420},{"date":"2022-12-18T00:00:00Z","value":1399060},{"date":"2022-12-19T00:00:00Z","value":1788635},{"date":"2022-12-20T00:00:00Z","value":1187520},{"date":"2022-12-21T00:00:00Z","value":3292470},{"date":"2022-12-22T00:00:00Z","value":1198400},{"date":"2022-12-23T00:00:00Z","value":1514760},{"date":"2022-12-24T00:00:00Z","value":1339230},{"date":"2022-12-25T00:00:00Z","value":689160},{"date":"2022-12-26T00:00:00Z","value":766790},{"date":"2022-12-27T00:00:00Z","value":933970},{"date":"2022-12-28T00:00:00Z","value":703230},{"date":"2022-12-29T00:00:00Z","value":861190},{"date":"2022-12-30T00:00:00Z","value":1078900},{"date":"2022-12-31T00:00:00Z","value":719150},{"date":"2023-01-01T00:00:00Z","value":898010},{"date":"2023-01-02T00:00:00Z","value":858700},{"date":"2023-01-03T00:00:00Z","value":2025995},{"date":"2023-01-04T00:00:00Z","value":1310290},{"date":"2023-01-05T00:00:00Z","value":1332690},{"date":"2023-01-06T00:00:00Z","value":1124800},{"date":"2023-01-07T00:00:00Z","value":948470},{"date":"2023-01-08T00:00:00Z","value":1200815},{"date":"2023-01-09T00:00:00Z","value":1049430},{"date":"2023-01-10T00:00:00Z","value":2230270},{"date":"2023-01-11T00:00:00Z","value":2514435},{"date":"2023-01-12T00:00:00Z","value":2833590},{"date":"2023-01-13T00:00:00Z","value":1729550},{"date":"2023-01-14T00:00:00Z","value":1776160},{"date":"2023-01-15T00:00:00Z","value":1878790},{"date":"2023-01-16T00:00:00Z","value":3377940},{"date":"2023-01-17T00:00:00Z","value":3107000},{"date":"2023-01-18T00:00:00Z","value":6050895},{"date":"2023-01-19T00:00:00Z","value":3218235},{"date":"2023-01-20T00:00:00Z","value":2133620},{"date":"2023-01-21T00:00:00Z","value":908405},{"date":"2023-01-22T00:00:00Z","value":2423615},{"date":"2023-01-23T00:00:00Z","value":1955020},{"date":"2023-01-24T00:00:00Z","value":2881585},{"date":"2023-01-25T00:00:00Z","value":2105065},{"date":"2023-01-26T00:00:00Z","value":2284195},{"date":"2023-01-27T00:00:00Z","value":606305}],"meta":{"current_page":"https://your-tenant-1234.tines.io/api/v1/reporting/time_saved?per_page=20&page=1","previous_page":null,"next_page":null,"per_page":20,"pages":1,"count":241}}
