rules:
  - path: /api/v2/intelligence/
    methods: ["GET"]
    request_headers:
      Authorization: "apikey test_username:test_api_key"
    query_params:
      order_by: update_id
      modified_ts__lt: "{modified_ts__lt:.*}"
      limit: "3"
      update_id__gt: "100000006"
    responses:
      - status_code: 200
        body: |-
          {
            "objects": [
              {"update_id":100000007,"target_industry":[],"source":"Analyst","threatscore":0,"threat_type":"c2","trusted_circle_ids":null,"description":null,"workgroups":[],"sort":[424188174],"resource_uri":"/api/v2/intelligence/183242941/","modified_ts":"2021-02-12T16:05:34.474Z","source_reported_confidence":-1,"type":"ip","uuid":"f0b4bb2b-bef0-432f-b84b-55cc1ea46cda","feed_id":0,"retina_confidence":-1,"created_ts":"2020-09-11T12:43:38.352Z","id":183242941,"value":"81.2.69.143","itype":"c2_ip","org":"","ip":"81.2.69.143","confidence":-1,"expiration_ts":"2020-12-10T12:43:38.023Z","owner_organization_id":70,"meta":{"severity":"low","detail2":"bifocals_deactivated_on_2021-02-12_16:02:54.668744"},"is_anonymous":false,"is_public":true,"asn":"","status":"inactive","tags":null,"can_add_public_tags":true,"subtype":null,"tlp":null,"created_by":null,"rdns":null,"is_editable":false,"locations":[],"source_locations":[]},
              {"update_id":100000008,"target_industry":[],"source":"Default Organization","threatscore":70,"threat_type":"c2","trusted_circle_ids":[10015],"description":null,"workgroups":[],"sort":[376553552],"resource_uri":"/api/v2/intelligence/184992550/","modified_ts":"2020-10-09T18:31:53.706Z","country":"US","source_reported_confidence":100,"latitude":47.6032,"type":"url","uuid":"d6a3e03c-f8d5-4820-83a0-848001ca3848","feed_id":0,"retina_confidence":-1,"created_ts":"2020-10-09T18:31:53.706Z","id":184992550,"value":"http://89.160.20.149/","itype":"c2_url","org":"","ip":"89.160.20.149","confidence":100,"expiration_ts":"2318-07-09T20:41:16.995Z","owner_organization_id":1,"meta":{"severity":"high","detail2":"imported by user 1"},"is_anonymous":false,"is_public":false,"asn":"","status":"active","tags":[{"id":"8m9","name":"object-type:c2_url"}],"can_add_public_tags":true,"subtype":null,"tlp":null,"created_by":null,"rdns":null,"is_editable":false,"locations":[],"source_locations":[]},
              {"update_id":100000009,"target_industry":[],"source":"Analyst","threatscore":0,"threat_type":"i2p","trusted_circle_ids":null,"description":null,"workgroups":[],"sort":[528280279],"resource_uri":"/api/v2/intelligence/235549249/","modified_ts":"2021-07-28T16:10:01.614Z","source_reported_confidence":-1,"type":"ip","uuid":"97116f93-a68d-4fe3-a108-0e9876933670","feed_id":0,"retina_confidence":-1,"created_ts":"2021-04-29T16:02:24.881Z","id":235549249,"value":"67.43.156.251","itype":"i2p_ip","org":"","ip":"67.43.156.251","confidence":-1,"expiration_ts":"2021-07-28T16:02:24.633Z","owner_organization_id":70,"meta":{"severity":"medium","detail2":"bifocals_deactivated_on_2021-07-28_16:10:00.097108"},"is_anonymous":false,"is_public":true,"asn":"","status":"inactive","tags":null,"can_add_public_tags":true,"subtype":null,"tlp":null,"created_by":null,"rdns":null,"is_editable":false,"locations":[],"source_locations":[]}
            ],
            "meta": {
              "offset": 0,
              "limit": 3,
              "total_count": 3,
              "next": null,
              "took": 1
            }
          }
  - path: /api/v2/intelligence/
    methods: ["GET"]
    request_headers:
      Authorization: "apikey test_username:test_api_key"
    query_params:
      order_by: update_id
      modified_ts__lt: "{modified_ts__lt:.*}"
      limit: "3"
      update_id__gt: "100000003"
    responses:
      - status_code: 200
        body: |-
          {
            "objects": [
              {"update_id":100000004,"target_industry":[],"source":"Analyst","threatscore":0,"threat_type":"apt","trusted_circle_ids":null,"description":null,"workgroups":[],"sort":[467408247],"resource_uri":"/api/v2/intelligence/235548934/","modified_ts":"2021-04-29T16:01:13.662Z","source_reported_confidence":-1,"type":"url","uuid":"8031fe34-3eb4-47f5-b0c8-e85fa1d1195d","feed_id":0,"retina_confidence":-1,"created_ts":"2021-04-29T16:01:13.662Z","id":235548934,"value":"http://www.bnmv3.com/","itype":"apt_url","org":"","confidence":-1,"expiration_ts":"9999-12-31T00:00:00.000Z","owner_organization_id":70,"meta":{"severity":"very-high","detail2":"imported by user 142"},"is_anonymous":false,"is_public":true,"asn":"","status":"active","tags":null,"can_add_public_tags":true,"subtype":null,"tlp":null,"created_by":null,"rdns":null,"is_editable":false,"locations":[],"source_locations":[]},
              {"update_id":100000005,"target_industry":[],"source":"Default Organization","threatscore":25,"threat_type":"bot","trusted_circle_ids":[10015],"description":null,"workgroups":[],"sort":[376544052],"resource_uri":"/api/v2/intelligence/184983050/","modified_ts":"2020-10-09T18:30:14.901Z","country":"CN","source_reported_confidence":100,"latitude":34.7725,"type":"ip","uuid":"c7e4fd9e-b4c0-4c20-83f2-9415ff671a19","feed_id":0,"retina_confidence":-1,"created_ts":"2020-10-09T18:30:14.901Z","id":184983050,"value":"216.160.83.63","itype":"bot_ip","org":"","ip":"216.160.83.63","confidence":100,"expiration_ts":"2318-07-09T20:41:16.995Z","owner_organization_id":1,"meta":{"severity":"low","detail2":"imported by user 1"},"is_anonymous":false,"is_public":false,"asn":"","status":"active","tags":null,"can_add_public_tags":true,"subtype":null,"tlp":null,"created_by":null,"rdns":null,"is_editable":false,"locations":[],"source_locations":[]},
              {"update_id":100000006,"target_industry":[],"source":"Default Organization","threatscore":70,"threat_type":"c2","trusted_circle_ids":[10015],"description":null,"workgroups":[],"sort":[376540078],"resource_uri":"/api/v2/intelligence/184979083/","modified_ts":"2020-10-09T18:14:39.498Z","source_reported_confidence":100,"latitude":43.1479,"type":"domain","uuid":"435d7aa2-93ce-4178-9eaf-6b70be95800e","feed_id":0,"retina_confidence":-1,"created_ts":"2020-10-09T18:14:39.498Z","id":184979083,"value":"www.poledancepoint.com","itype":"c2_domain","org":"","ip":"175.16.199.143","confidence":100,"expiration_ts":"2318-07-09T20:41:16.995Z","owner_organization_id":1,"meta":{"severity":"high","detail2":"imported by user 1"},"is_anonymous":false,"is_public":false,"asn":"","status":"active","tags":[{"id":"wg7","name":"MalSpam"}],"can_add_public_tags":true,"subtype":null,"tlp":null,"created_by":null,"rdns":null,"is_editable":false,"locations":[],"source_locations":[]}
            ],
            "meta": {
              "offset": 0,
              "limit": 3,
              "total_count": 6,
              "next": "/api/v2/intelligence/?limit=3&modified_ts__lt=2099-01-01T00%3A00%3A01Z&order_by=update_id&update_id__gt=100000006",
              "took": 1
            }
          }
  - path: /api/v2/intelligence/
    methods: ["GET"]
    request_headers:
      Authorization: "apikey test_username:test_api_key"
    query_params:
      order_by: update_id
      modified_ts__lt: "{modified_ts__lt:.*}"
      modified_ts__gt: "{modified_ts__gt:.*}"
      limit: "3"
      # update_id__gt: null
    responses:
      - status_code: 200
        body: |-
          {
            "objects": [
              {"update_id":100000001,"target_industry":[],"source":"Analyst","threatscore":54,"threat_type":"apt","trusted_circle_ids":null,"description":null,"workgroups":[],"sort":[455403032],"resource_uri":"/api/v2/intelligence/232020126/","modified_ts":"2021-04-06T09:56:22.915Z","source_reported_confidence":60,"type":"domain","uuid":"0921be47-9cc2-4265-b896-c62a7cb91042","feed_id":0,"retina_confidence":-1,"created_ts":"2021-04-06T09:56:22.915Z","id":232020126,"value":"gen1xyz.com","itype":"apt_domain","org":"","confidence":60,"expiration_ts":"9999-12-31T00:00:00.000Z","owner_organization_id":67,"meta":{"severity":"very-high","detail2":"imported by user 136"},"is_anonymous":false,"is_public":true,"asn":"","status":"active","tags":null,"can_add_public_tags":true,"subtype":null,"tlp":null,"created_by":null,"rdns":null,"is_editable":false,"locations":[],"source_locations":[]},
              {"update_id":100000002,"target_industry":[],"source":"Analyst","threatscore":9,"threat_type":"apt","trusted_circle_ids":null,"description":null,"workgroups":[],"sort":[467407026],"resource_uri":"/api/v2/intelligence/235548914/","modified_ts":"2021-04-29T16:00:35.529Z","source_reported_confidence":12,"type":"email","uuid":"bc5a223e-f7a1-4acb-b50b-c81395e34218","feed_id":0,"retina_confidence":-1,"created_ts":"2021-04-29T16:00:35.529Z","id":235548914,"value":"edc2@wsx.com","itype":"apt_email","org":"","confidence":12,"expiration_ts":"9999-12-31T00:00:00.000Z","owner_organization_id":70,"meta":{"severity":"medium","detail2":"imported by user 142"},"is_anonymous":false,"is_public":true,"asn":"","status":"active","tags":null,"can_add_public_tags":true,"subtype":null,"tlp":null,"created_by":null,"rdns":null,"is_editable":false,"locations":[],"source_locations":[]},
              {"update_id":100000003,"target_industry":[],"source":"Analyst","threatscore":0,"threat_type":"apt","trusted_circle_ids":null,"description":null,"workgroups":[],"sort":[467409119],"resource_uri":"/api/v2/intelligence/235549247/","modified_ts":"2021-04-29T16:02:17.558Z","source_reported_confidence":-1,"type":"ip","uuid":"463f01f8-7675-4caa-a6aa-db2fb3787b09","feed_id":0,"retina_confidence":-1,"created_ts":"2021-04-29T16:02:17.558Z","id":235549247,"value":"89.160.20.176","itype":"apt_ip","org":"","ip":"89.160.20.176","confidence":-1,"expiration_ts":"9999-12-31T00:00:00.000Z","owner_organization_id":70,"meta":{"severity":"very-high","detail2":"imported by user 142"},"is_anonymous":false,"is_public":true,"asn":"","status":"active","tags":null,"can_add_public_tags":true,"subtype":null,"tlp":null,"created_by":null,"rdns":null,"is_editable":false,"locations":[],"source_locations":[]}
            ],
            "meta": {
              "offset": 0,
              "limit": 3,
              "total_count": 9,
              "next": "/api/v2/intelligence/?limit=3&modified_ts__lt=2099-01-01T00%3A00%3A01Z&order_by=update_id&update_id__gt=100000003",
              "took": 1
            }
          }
